[
{
"dish":{"name":"Frozen pizza","carbs":["PASTRY"],"meat":["???"],"vegetable":["MUSHROOM"],"chef":["???"],"price":1,"days":1}
},
 {
"dish":{"name":"Chicken wraps","carbs":["WRAP"],"meat":["CHICKEN"],"vegetable":["SALAD","BEANS"],"chef":["???"],"price":1,"days":2}
},
 {
"dish":{"name":"Chicken wraps","carbs":["WRAP"],"meat":["CHICKEN"],"vegetable":["SALAD","BEANS"],"chef":["???"],"price":1,"days":2}
},
 {
"dish":{"name":"Bacon pancakes","carbs":["PANCAKE"],"meat":["BACON"],"vegetable":["???"],"chef":["MELISA","JEROEN"],"price":1,"days":1}
},
 {
"dish":{"name":"Chicken tuna pasta","carbs":["PASTA"],"meat":["CHICKEN"],"vegetable":["OLIVES","CAPERS"],"chef":["???"],"price":1,"days":1}
},
 {
"dish":{"name":"Frittata","carbs":["???"],"meat":["BACON"],"vegetable":["???"],"chef":["MELISA"],"price":1,"days":1}
},
 {
"dish":{"name":"Mac N cheese","carbs":["PASTA"],"meat":["BACON"],"vegetable":["AVOCADO"],"chef":["MELISA"],"price":1,"days":1}
}
]